Why Users Churn
…
There is one row in this data frame for each word-segment combination. n is the number of times that word is used for that segment and total is the total number of words in the segment’s comments. ## The bind_tf_idf function The idea of tf-idf is to find the important words for the content of each collection of comments by decreasing the weight for commonly used words and increasing the weight for words that are not used very much in an entire collection of documents, in this case all NPS comments.

Calculating tf-idf attempts to find the words that are important (i.e., common) in a text, but not too common.

The bind_tf_idf function takes a tidy text dataset as input with one row per token (term), per document. One column (word here) contains the terms/tokens, one column contains the documents (segment here), and the last necessary column contains the counts, how many times each document contains each term (n).

# Calculate tf_idf
segment_words <- segment_words %>%
  bind_tf_idf(word, type, n)

segment_words

## # A tibble: 4,717 x 7
##                        type     word     n total         tf       idf
##                      <fctr>    <chr> <int> <int>      <dbl>     <dbl>
##  1 awesome_downgrade_survey   buffer   440 11297 0.03894839 0.2231436
##  2 awesome_downgrade_survey   social   259 11297 0.02292644 0.2231436
##  3 awesome_downgrade_survey     plan   234 11297 0.02071346 0.2231436
##  4 awesome_downgrade_survey    media   192 11297 0.01699566 0.2231436
##  5 awesome_downgrade_survey  service   192 11297 0.01699566 0.2231436
##  6 awesome_downgrade_survey     time   184 11297 0.01628751 0.2231436
##  7 awesome_downgrade_survey    posts   180 11297 0.01593343 0.2231436
##  8 awesome_downgrade_survey     post   177 11297 0.01566788 0.2231436
##  9              exit_survey  account   163  3747 0.04350147 0.2231436
## 10 awesome_downgrade_survey business   146 11297 0.01292379 0.2231436
## # ... with 4,707 more rows, and 1 more variables: tf_idf <dbl>

The idf and tf_idf will be 0 for extremely common words like “the” and “a”. We’ve already removed these stop words from our dataset.

Let’s look at words with high tf_idf values.

# Look at high tf_idf value words
segment_words %>%
  select(-total) %>%
  arrange(desc(tf_idf))

## # A tibble: 4,717 x 6
##                                 type       word     n          tf
##                               <fctr>      <chr> <int>       <dbl>
##  1 business_downgrade_awesome_survey       plan    26 0.048417132
##  2                       exit_survey    account   163 0.043501468
##  3                       exit_survey       page    37 0.009874566
##  4                       exit_survey  instagram    66 0.017614091
##  5          awesome_downgrade_survey     buffer   440 0.038948393
##  6 business_downgrade_awesome_survey   business    20 0.037243948
##  7             business_churn_survey     buffer    48 0.034557235
##  8                       exit_survey     buffer   120 0.032025620
##  9 business_downgrade_awesome_survey comparison     2 0.003724395
## 10 business_downgrade_awesome_survey       jump     2 0.003724395
## # ... with 4,707 more rows, and 2 more variables: idf <dbl>, tf_idf <dbl>
…
# View the bigrams
head(bigrams$bigram)

## [1] "not using"         "using anymore"     "my marketing"     
## [4] "marketing manager" "manager has"       "has a"

Great! Each token now is represented by a bigram. Let’s take a quick look at the most common bigrams

# Count the most common bigrams
bigrams %>%
  count(bigram, sort = TRUE)

## # A tibble: 21,784 x 2
##          bigram     n
##           <chr> <int>
##  1 social media   243
##  2    not using   241
##  3     using it   212
##  4      i don't   209
##  5         i am   195
##  6    no longer   172
##  7       use it   163
##  8   don't need   154
##  9       i have   153
## 10      need to   149
## # ... with 21,774 more rows
…
# Create tibble of stop words
stopwords <- tibble(word)

# Filter out stop-words
filtered <- separated %>%
  filter(!word1 %in% stopwords$word) %>%
  filter(!word2 %in% stopwords$word)

# Calculate new bigram counts
bigram_counts <- filtered %>% 
  count(word1, word2, sort = TRUE)

bigram_counts

## # A tibble: 13,113 x 3
##      word1  word2     n
##      <chr>  <chr> <int>
##  1  social  media   243
##  2     not  using   241
##  3   don't   need   154
##  4      be   back   135
##  5   don't    use   103
##  6 awesome   plan    96
##  7   thank    you    85
##  8   using buffer    75
##  9    love buffer    69
## 10   don't   have    66
## # ... with 13,103 more rows
…
head(bigrams_united$bigram)

## [1] "not using"         "using anymore"     "marketing manager"
## [4] "manager has"       "buffer account"    "account therefore"

Nice! Let’s look at the most common bigrams.

# Find most common bigrams
bigrams_united %>%
  count(bigram, sort = TRUE)

## # A tibble: 13,113 x 2
##          bigram     n
##           <chr> <int>
##  1 social media   243
##  2    not using   241
##  3   don't need   154
##  4      be back   135
##  5    don't use   103
##  6 awesome plan    96
##  7    thank you    85
##  8 using buffer    75
##  9  love buffer    69
## 10   don't have    66
## # ... with 13,103 more rows
…
from: the node an edge is coming from

to: the node an edge is going towards

weight: A numeric value associated with each edge

The igraph package has many powerful functions for manipulating and analyzing networks. One way to create an igraph object from tidy data is the graph_from_data_frame() function, which takes a data frame of edges with columns for “from”, “to”, and edge attributes (in this case n):

library(igraph)

# Original counts
bigram_counts

## # A tibble: 13,113 x 3
##      word1  word2     n
##      <chr>  <chr> <int>
##  1  social  media   243
##  2     not  using   241
##  3   don't   need   154
##  4      be   back   135
##  5   don't    use   103
##  6 awesome   plan    96
##  7   thank    you    85
##  8   using buffer    75
##  9    love buffer    69
## 10   don't   have    66
## # ... with 13,103 more rows
…
