An analysis of #bufferchat tweets
…
The Buffer team is the happiest group of people I’ve been around, and it shows in our communication. I would guess that the bufferchat tweets have very high sentiment scores – let’s check and see.

# we'll use the tidytext package
library(tidytext); library(tidyr)

# unnest tokens
words <- tweets %>%
  unnest_tokens(word, text) %>%
  anti_join(stop_words, by = 'word')

As discussed above, there are a variety of methods and dictionaries that exist for evaluating the opinion or emotion in text. The tidytext package contains several sentiment lexicons in the sentiments dataset.

sentiments

## # A tibble: 23,165 x 4
##           word sentiment lexicon score
##          <chr>     <chr>   <chr> <int>
##  1      abacus     trust     nrc    NA
##  2     abandon      fear     nrc    NA
##  3     abandon  negative     nrc    NA
##  4     abandon   sadness     nrc    NA
##  5   abandoned     anger     nrc    NA
##  6   abandoned      fear     nrc    NA
##  7   abandoned  negative     nrc    NA
##  8   abandoned   sadness     nrc    NA
##  9 abandonment     anger     nrc    NA
## 10 abandonment      fear     nrc    NA
## # ... with 23,155 more rows
…
