Churn Prediction with Deep Learning
…
Now we can create our predict_model() function, which wraps keras::predict_proba(). The trick here is to realize that it’s inputs must be x a model, newdata a dataframe object (this is important), and type which is not used but can be use to switch the output type. The output is also a little tricky because it must be in the format of probabilities by classification (this is important; shown next).

# setup lime::predict_model() function for keras
predict_model.keras.models.Sequential <- function(x, newdata, type, ...) {
  pred <- predict_proba(object = x, x = as.matrix(newdata))
  data.frame(Yes = pred, No = 1 - pred)
}

Run this next script to show you what the output looks like and to test our predict_model() function. See how it’s the probabilities by classification. It must be in this form for model_type = "classification".

# test our predict_model() function
predict_model(x = model_keras, newdata = x_test_tbl, type = 'raw') %>%
  tibble::as_tibble()

## # A tibble: 15,153 x 2
##            Yes        No
##          <dbl>     <dbl>
##  1 0.048169497 0.9518305
##  2 0.015589011 0.9844110
##  3 0.017783972 0.9822160
##  4 0.009276078 0.9907239
##  5 0.108753555 0.8912464
##  6 0.162961081 0.8370389
##  7 0.021975949 0.9780241
##  8 0.016171509 0.9838285
##  9 0.024991035 0.9750090
## 10 0.011792799 0.9882072
## # ... with 15,143 more rows
…
