Game of Thrones Book Analysis
…
Which words have about the same likelihood of following “she” or “he” in the series?

# Arrange by logratio
word_ratios %>% 
    arrange(abs(logratio))

## # A tibble: 117 x 4
##      word2          he         she     logratio
##      <chr>       <dbl>       <dbl>        <dbl>
##  1  caught 0.001656759 0.001662001  0.004558188
##  2     sat 0.003995712 0.004023793  0.010103468
##  3   found 0.010232921 0.010321903  0.012491048
##  4  looked 0.012035864 0.012246326  0.025009301
##  5   stood 0.004824091 0.004723583 -0.030375602
##  6    said 0.062664458 0.061056683 -0.037498185
##  7   tried 0.007163045 0.007435269  0.053812107
##  8 stopped 0.002095312 0.002011896 -0.058609283
##  9  turned 0.010866387 0.010409377 -0.061988621
## 10 laughed 0.003752071 0.003586424 -0.065141020
## # ... with 107 more rows
…
