Bot Or No Bot?
…
Now let’s calculate the probabilities for the Buffer team’s accounts and sort them from most to least bot-like.

# get bot probability estimates
data <- botornot(users)

# hash the usernames
data$user_hash <- md5(data$user)

# arrange by prob ests
data %>% 
  arrange(desc(prob_bot)) %>% 
  select(-user)

## # A tibble: 64 x 2
##    prob_bot user_hash                       
##       <dbl> <chr>                           
##  1    0.999 3ff40b69a60e6210f3cbda8db1cb4ae2
##  2    0.989 3e921417f41b66f1c24862710537f192
##  3    0.985 d093563010eedd85801769f91909265d
##  4    0.964 712a4384e6681bd521c5266e16789c29
##  5    0.906 0edb7ec9098076761bd14c9c3ca97bd3
##  6    0.899 6ed84e511f386eb4942cfab089b02602
##  7    0.897 db82005412c13e740c03860b29aec7b7
##  8    0.894 8dc5886d5c56e75b89ab191e0e5958cd
##  9    0.891 a1d8e95101f88a8d7ef65d5106b7183c
## 10    0.868 fa3d30c0919008e2ab8b5e87192a13ac
## # ... with 54 more rows
…
