Predicting Churn with General Linear Models: Part 1
…
# get the overall update totals and number of weeksfor each user
update_totals <- users_complete %>%
  group_by(user_id) %>%
  summarize(update_total = sum(update_count), 
            number_of_weeks = n_distinct(update_week[update_count > 0])) %>%
  filter(number_of_weeks >= 3)

# count the updates by week
update_week_counts <- users_complete %>% 
  inner_join(update_totals, by = 'user_id') %>%
  filter(update_week != max(users$update_week))

update_week_counts

## # A tibble: 2,822,278 x 7
##                     user_id update_week update_count user_created_at
##                       <chr>      <date>        <dbl>          <date>
##  1 000000000000000000000354  2017-02-13            0      2011-01-24
##  2 000000000000000000000354  2017-02-13            0      2011-01-24
##  3 000000000000000000000354  2017-02-13            0      2011-01-24
##  4 000000000000000000000354  2017-02-13            0      2011-01-24
##  5 000000000000000000000354  2017-02-13            0      2011-01-24
##  6 000000000000000000000354  2017-02-13            0      2011-01-24
##  7 000000000000000000000354  2017-02-13            0      2011-01-24
##  8 000000000000000000000354  2017-02-13            0      2011-01-24
##  9 000000000000000000000354  2017-02-13            0      2011-01-24
## 10 000000000000000000000354  2017-02-13            0      2011-01-24
## # ... with 2,822,268 more rows, and 3 more variables: year <dbl>,
## #   update_total <dbl>, number_of_weeks <int>
…
# create logistic regression model
mod <- ~ glm(cbind(update_count, update_total) ~ year, ., family = "binomial")

# calculate growth rates for each user (this might take a while)
slopes <- update_week_counts %>%
  nest(-user_id) %>%
  mutate(model = map(data, mod)) %>%
  unnest(map(model, tidy)) %>%
  filter(term == "year") %>%
  arrange(desc(estimate))

slopes %>% arrange(estimate)

## # A tibble: 5,902 x 6
##                     user_id  term   estimate std.error statistic
##                       <chr> <chr>      <dbl>     <dbl>     <dbl>
##  1 5975dfd5e2a81d325d08ec34  year -104.17224  6.068335 -17.16653
##  2 59649924a73330287bb13cd0  year  -92.91866  3.845155 -24.16513
##  3 59482025a73330622578bbc2  year  -85.03305  6.841177 -12.42959
##  4 58dd14e3e84fe7ca6de31ad6  year  -67.27158  6.535983 -10.29250
##  5 596457f51908cd0f7f34bc69  year  -60.91291  5.715369 -10.65774
##  6 58e55331d842957a4d0ea6bf  year  -54.06255  4.071159 -13.27940
##  7 5965f441afabd391594784a7  year  -53.55497  5.040584 -10.62475
##  8 58dcf362df84518a535e4525  year  -51.14843  3.436332 -14.88460
##  9 594b41571908cdb909a58185  year  -49.90948  4.240515 -11.76968
## 10 593e6533840f273826cefb5a  year  -48.93469  3.776747 -12.95684
## # ... with 5,892 more rows, and 1 more variables: p.value <dbl>
…
Just like we thought!

Hypothesis

My hypothesis is that the users with the lowest model estimates (estimate <= - 5 and p.value <= 0.05) – those who have seen the number of updates scheduled decrease the quickest – are more likely to churn in the next two months than users with estimates greater than or equal to zero.

To test this hypothesis, I’ll gather all of those users (there are 717 of them) and monitor their churn rates over the next 60 days. I will compare these to the churn rates of the rest of the users, which will act as a control group.

slopes %>%
  filter(p.value < 0.05 & estimate <= -5) %>%
  arrange(estimate)

## # A tibble: 692 x 6
##                     user_id  term   estimate std.error statistic
##                       <chr> <chr>      <dbl>     <dbl>     <dbl>
##  1 5975dfd5e2a81d325d08ec34  year -104.17224  6.068335 -17.16653
##  2 59649924a73330287bb13cd0  year  -92.91866  3.845155 -24.16513
##  3 59482025a73330622578bbc2  year  -85.03305  6.841177 -12.42959
##  4 58dd14e3e84fe7ca6de31ad6  year  -67.27158  6.535983 -10.29250
##  5 596457f51908cd0f7f34bc69  year  -60.91291  5.715369 -10.65774
##  6 58e55331d842957a4d0ea6bf  year  -54.06255  4.071159 -13.27940
##  7 5965f441afabd391594784a7  year  -53.55497  5.040584 -10.62475
##  8 58dcf362df84518a535e4525  year  -51.14843  3.436332 -14.88460
##  9 594b41571908cdb909a58185  year  -49.90948  4.240515 -11.76968
## 10 593e6533840f273826cefb5a  year  -48.93469  3.776747 -12.95684
## # ... with 682 more rows, and 1 more variables: p.value <dbl>
…
